Lab 10 Homework
…
There is a positive correlation between weight and hindfoot length. As the weight increases, the hindfoot length also increases.

Which two species have, on average, the highest weight? Once you have identified them, make a new column that is a ratio of weight to hindfoot_length. Make a plot that shows the range of this new ratio and fill by sex.

deserts %>%
  filter(!is.na(weight)) %>%
  group_by(species) %>%
  summarize(avg_weight = mean(weight,na.rm=T)) %>%
  arrange(desc(avg_weight))

## `summarise()` ungrouping output (override with `.groups` argument)

## # A tibble: 22 x 2
##    species      avg_weight
##    <chr>             <dbl>
##  1 albigula          159. 
##  2 spectabilis       120. 
##  3 spilosoma          93.5
##  4 hispidus           65.6
##  5 fulviventer        58.9
##  6 ochrognathus       55.4
##  7 ordii              48.9
##  8 merriami           43.2
##  9 baileyi            31.7
## 10 leucogaster        31.6
## #  with 12 more rows
…
