…
```
## `summarise()` regrouping output by 'year' (override with `.groups` argument)
```

```r
gapminder_summary
```

```
## # A tibble: 60 x 5
## # Groups:   year [12]
##    year  continent mean_lifeExp max_lifeExp min_lifeExp
##    <fct> <fct>            <dbl>       <dbl>       <dbl>
##  1 1952  Africa            39.1        52.7        30  
##  2 1952  Americas          53.3        68.8        37.6
##  3 1952  Asia              46.3        65.4        28.8
##  4 1952  Europe            64.4        72.7        43.6
##  5 1952  Oceania           69.3        69.4        69.1
##  6 1957  Africa            41.3        58.1        31.6
##  7 1957  Americas          56.0        70.0        40.7
##  8 1957  Asia              49.3        67.8        30.3
##  9 1957  Europe            66.7        73.5        48.1
## 10 1957  Oceania           70.3        70.3        70.3
## # … with 50 more rows
```
…
```
## `summarise()` regrouping output by 'country' (override with `.groups` argument)
```

```r
gapminder_summary %>%
  arrange(desc(pop_diff))
```

```
## # A tibble: 284 x 2
## # Groups:   country [142]
##    country        pop_diff
##    <fct>             <int>
##  1 China         762419569
##  2 India         738396331
##  3 United States 143586947
##  4 Indonesia     141495000
##  5 Brazil        133408087
##  6 Pakistan      127924057
##  7 Bangladesh    103561480
##  8 Nigeria       101912068
##  9 Mexico         78556574
## 10 Philippines    68638596
## # … with 274 more rows
```
…
