…
```
## See spec(...) for full column specifications.
```

```r
cancer_general_data <- janitor::clean_names(cancer_general_data)
cancer_general_data
```

```
## # A tibble: 4,744 x 161
##    cancer_site year  tumour_type tumour_type_2 tumour_type_3 basis_of_diagno…
##    <chr>       <chr> <chr>       <chr>         <chr>         <chr>           
##  1 Bladder, U… 2013  All         All           All           Not split by Ba…
##  2 Bladder, U… 2013  Renal Pelv… All           All           Not split by Ba…
##  3 Bladder, U… 2013  Renal Pelv… Malignant an… All           Not split by Ba…
##  4 Bladder, U… 2013  Renal Pelv… Malignant an… All           Not split by Ba…
##  5 Bladder, U… 2013  Renal Pelv… Malignant an… All           Not split by Ba…
##  6 Bladder, U… 2013  Renal Pelv… Malignant an… All           Not split by Ba…
##  7 Bladder, U… 2013  Renal Pelv… Malignant an… All           Not split by Ba…
##  8 Bladder, U… 2013  Renal Pelv… Malignant an… All           Not split by Ba…
##  9 Bladder, U… 2013  Renal Pelv… Malignant an… All           Not split by Ba…
## 10 Bladder, U… 2013  Renal Pelv… Malignant an… All           Not split by Ba…
## # … with 4,734 more rows, and 155 more variables: stage <chr>,
## #   stage_detail <chr>, stage_detail_2 <chr>, age <chr>, region <chr>,
## #   sex <chr>, grade <chr>, nodal_status <chr>, incidence <dbl>,
## #   population <dbl>, incidence_rate <dbl>,
## #   incidence_rate_lci_95_percent <dbl>, incidence_rate_uci_95_percent <dbl>,
## #   ct_count <chr>, ct_cohort <chr>, ct_percentage <chr>,
## #   ct_percentage_lci_95_percent <chr>, ct_percentage_uci_95_percent <chr>,
## #   rt_count <chr>, rt_cohort <chr>, rt_percentage <chr>,
## #   rt_percentage_lci_95_percent <chr>, rt_percentage_uci_95_percent <chr>,
…
```
## `summarise()` regrouping output by 'stage' (override with `.groups` argument)
```

```r
cancer_specific
```

```
## # A tibble: 136 x 6
## # Groups:   stage [4]
##    stage      tumour_type tumour_type_2   tumour_type_3 incidence incidence_rate
##    <chr>      <chr>       <chr>           <chr>             <dbl>          <dbl>
##  1 All stages Bladder     Malignant and … Urothelial        16609           30.1
##  2 All stages Bladder     Malignant and … Urothelial        49280           29.7
##  3 All stages Bladder     Malignant and … Urothelial        48824           29.7
##  4 All stages Bladder     Malignant and … Urothelial        16250           29.7
##  5 All stages Bladder     Malignant and … Urothelial        16421           29.5
##  6 All stages Bladder     Malignant and … Urothelial        15965           29.4
##  7 All stages Bladder     Malignant and … Urothelial        47751           29.3
##  8 All stages Bladder     Malignant and … Urothelial        15536           28.8
##  9 Non-muscl… Bladder     Malignant and … Urothelial        12276           22.2
## 10 Non-muscl… Bladder     Malignant and … Urothelial        36038           21.8
## # … with 126 more rows
```
…
