…
**4. What taxa are represented in the `homerange` data frame? Make a new data frame `taxa` that is restricted to taxon, common name, class, order, family, genus, species.**  

The taxa represented in the homerange data frame are birds, lake fishes, lizards, mammals, marine fishes, river fishes, snakes, tortoises, and turtles. 


```r
taxa <- select(homerange, "taxon", "common.name", "class", "order", "family", "genus", "species")
taxa
```

```
## # A tibble: 569 x 7
##    taxon     common.name       class      order     family    genus    species  
##    <fct>     <chr>             <chr>      <fct>     <chr>     <chr>    <chr>    
##  1 lake fis… american eel      actinopte… anguilli… anguilli… anguilla rostrata 
##  2 river fi… blacktail redhor… actinopte… cyprinif… catostom… moxosto… poecilura
##  3 river fi… central stonerol… actinopte… cyprinif… cyprinid… campost… anomalum 
##  4 river fi… rosyside dace     actinopte… cyprinif… cyprinid… clinost… funduloi…
##  5 river fi… longnose dace     actinopte… cyprinif… cyprinid… rhinich… cataract…
##  6 river fi… muskellunge       actinopte… esocifor… esocidae  esox     masquino…
##  7 marine f… pollack           actinopte… gadiform… gadidae   pollach… pollachi…
##  8 marine f… saithe            actinopte… gadiform… gadidae   pollach… virens   
##  9 marine f… lined surgeonfish actinopte… percifor… acanthur… acanthu… lineatus 
## 10 marine f… orangespine unic… actinopte… percifor… acanthur… naso     lituratus
## # … with 559 more rows
```
…
There are 342 carnivores and 227 herbivores.

**7. Make two new data frames, one which is restricted to carnivores and another that is restricted to herbivores.**  


```r
new_carnivores <- filter(homerange, trophic.guild == "carnivore")
new_carnivores
```

```
## # A tibble: 342 x 24
##    taxon common.name class order family genus species primarymethod N    
##    <fct> <chr>       <chr> <fct> <chr>  <chr> <chr>   <chr>         <chr>
##  1 lake… american e… acti… angu… angui… angu… rostra… telemetry     16   
##  2 rive… blacktail … acti… cypr… catos… moxo… poecil… mark-recaptu… <NA> 
##  3 rive… central st… acti… cypr… cypri… camp… anomal… mark-recaptu… 20   
##  4 rive… rosyside d… acti… cypr… cypri… clin… fundul… mark-recaptu… 26   
##  5 rive… longnose d… acti… cypr… cypri… rhin… catara… mark-recaptu… 17   
##  6 rive… muskellunge acti… esoc… esoci… esox  masqui… telemetry     5    
##  7 mari… pollack     acti… gadi… gadid… poll… pollac… telemetry     2    
##  8 mari… saithe      acti… gadi… gadid… poll… virens  telemetry     2    
##  9 mari… giant trev… acti… perc… caran… cara… ignobi… telemetry     4    
## 10 lake… rock bass   acti… perc… centr… ambl… rupest… mark-recaptu… 16   
## # … with 332 more rows, and 15 more variables: mean.mass.g <dbl>,
## #   log10.mass <dbl>, alternative.mass.reference <chr>, mean.hra.m2 <dbl>,
## #   log10.hra <dbl>, hra.reference <chr>, realm <chr>, thermoregulation <chr>,
## #   locomotion <chr>, trophic.guild <chr>, dimension <chr>, preymass <dbl>,
## #   log10.preymass <dbl>, PPMR <dbl>, prey.size.reference <chr>
```


```r
new_herbivores <- filter(homerange, trophic.guild == "herbivore")
new_herbivores
```

```
## # A tibble: 227 x 24
##    taxon common.name class order family genus species primarymethod N    
##    <fct> <chr>       <chr> <fct> <chr>  <chr> <chr>   <chr>         <chr>
##  1 mari… lined surg… acti… perc… acant… acan… lineat… direct obser… <NA> 
##  2 mari… orangespin… acti… perc… acant… naso  litura… telemetry     8    
##  3 mari… bluespine … acti… perc… acant… naso  unicor… telemetry     7    
##  4 mari… redlip ble… acti… perc… blenn… ophi… atlant… direct obser… 20   
##  5 mari… bermuda ch… acti… perc… kypho… kyph… sectat… telemetry     11   
##  6 mari… cherubfish  acti… perc… pomac… cent… argi    direct obser… <NA> 
##  7 mari… damselfish  acti… perc… pomac… chro… chromis direct obser… <NA> 
##  8 mari… twinspot d… acti… perc… pomac… chry… biocel… direct obser… 18   
##  9 mari… wards dams… acti… perc… pomac… poma… wardi   direct obser… <NA> 
## 10 mari… australian… acti… perc… pomac… steg… apical… direct obser… <NA> 
## # … with 217 more rows, and 15 more variables: mean.mass.g <dbl>,
## #   log10.mass <dbl>, alternative.mass.reference <chr>, mean.hra.m2 <dbl>,
## #   log10.hra <dbl>, hra.reference <chr>, realm <chr>, thermoregulation <chr>,
## #   locomotion <chr>, trophic.guild <chr>, dimension <chr>, preymass <dbl>,
## #   log10.preymass <dbl>, PPMR <dbl>, prey.size.reference <chr>
```
…
The largest deer has a log10.mass of 5.48746. The common name of this deer is moose. 

**10. As measured by the data, which snake species has the smallest homerange? Show all of your work, please. Look this species up online and tell me about it!** **Snake is found in taxon column**    


```r
snake <- filter(homerange, taxon == "snakes")
snake <- select(snake, "mean.hra.m2", "taxon", "common.name")
snake
```

```
## # A tibble: 41 x 3
##    mean.hra.m2 taxon  common.name          
##          <dbl> <fct>  <chr>                
##  1         700 snakes western worm snake   
##  2         253 snakes eastern worm snake   
##  3      151000 snakes racer                
##  4      114500 snakes yellow bellied racer 
##  5        6476 snakes ringneck snake       
##  6     1853000 snakes eastern indigo snake 
##  7      150600 snakes great plains ratsnake
##  8       46000 snakes western ratsnake     
##  9      516375 snakes hognose snake        
## 10      110900 snakes European whipsnake   
## # … with 31 more rows
```


```r
arrange(snake, snake$mean.hra.m2)
```

```
## # A tibble: 41 x 3
##    mean.hra.m2 taxon  common.name         
##          <dbl> <fct>  <chr>               
##  1        200  snakes namaqua dwarf adder 
##  2        253  snakes eastern worm snake  
##  3        600  snakes butlers garter snake
##  4        700  snakes western worm snake  
##  5       2400  snakes snubnosed viper     
##  6       2614. snakes chinese pit viper   
##  7       6476  snakes ringneck snake      
##  8      10655  snakes cottonmouth         
##  9      15400  snakes redbacked ratsnake  
## 10      17400  snakes gopher snake        
## # … with 31 more rows
```
…
