…
```r
?msleep
```

The built-in data on mammal sleep patterns is based off V.M. Savage and G.B. West's study on a quantitative, theoretical framework for understanding mammalian sleep (Proceedings of the National Academy of Sciences, 2007). This information is from performing the above command. 

2. Store these data into a new data frame `sleep`.

```r
sleep <- msleep
sleep
```

```
## # A tibble: 83 x 11
##    name  genus vore  order conservation sleep_total sleep_rem sleep_cycle awake
##    <chr> <chr> <chr> <chr> <chr>              <dbl>     <dbl>       <dbl> <dbl>
##  1 Chee… Acin… carni Carn… lc                  12.1      NA        NA      11.9
##  2 Owl … Aotus omni  Prim… <NA>                17         1.8      NA       7  
##  3 Moun… Aplo… herbi Rode… nt                  14.4       2.4      NA       9.6
##  4 Grea… Blar… omni  Sori… lc                  14.9       2.3       0.133   9.1
##  5 Cow   Bos   herbi Arti… domesticated         4         0.7       0.667  20  
##  6 Thre… Brad… herbi Pilo… <NA>                14.4       2.2       0.767   9.6
##  7 Nort… Call… carni Carn… vu                   8.7       1.4       0.383  15.3
##  8 Vesp… Calo… <NA>  Rode… <NA>                 7        NA        NA      17  
##  9 Dog   Canis carni Carn… domesticated        10.1       2.9       0.333  13.9
## 10 Roe … Capr… herbi Arti… lc                   3        NA        NA      21  
## # … with 73 more rows, and 2 more variables: brainwt <dbl>, bodywt <dbl>
```
…
6. How many herbivores are represented in the data?  

```r
herbi_count <- subset(sleep,vore == "herbi")
herbi_count
```

```
## # A tibble: 32 x 11
##    name  genus vore  order conservation sleep_total sleep_rem sleep_cycle awake
##    <chr> <chr> <chr> <chr> <chr>              <dbl>     <dbl>       <dbl> <dbl>
##  1 Moun… Aplo… herbi Rode… nt                  14.4       2.4      NA       9.6
##  2 Cow   Bos   herbi Arti… domesticated         4         0.7       0.667  20  
##  3 Thre… Brad… herbi Pilo… <NA>                14.4       2.2       0.767   9.6
##  4 Roe … Capr… herbi Arti… lc                   3        NA        NA      21  
##  5 Goat  Capri herbi Arti… lc                   5.3       0.6      NA      18.7
##  6 Guin… Cavis herbi Rode… domesticated         9.4       0.8       0.217  14.6
##  7 Chin… Chin… herbi Rode… domesticated        12.5       1.5       0.117  11.5
##  8 Tree… Dend… herbi Hyra… lc                   5.3       0.5      NA      18.7
##  9 Asia… Elep… herbi Prob… en                   3.9      NA        NA      20.1
## 10 Horse Equus herbi Peri… domesticated         2.9       0.6       1      21.1
## # … with 22 more rows, and 2 more variables: brainwt <dbl>, bodywt <dbl>
```
…
There are 32 herbivores represented in the data. When displaying herbi_count, we see that there are 32 rows of herbivores. We can confirm this count by doing count(herbi_count), which returns 32. 

7. We are interested in two groups; small and large mammals. Let's define small as less than or equal to 1kg body weight and large as greater than or equal to 200kg body weight. Make two new dataframes (large and small) based on these parameters.

```r
small <- subset(sleep,bodywt<=1)
small
```

```
## # A tibble: 36 x 11
##    name  genus vore  order conservation sleep_total sleep_rem sleep_cycle awake
##    <chr> <chr> <chr> <chr> <chr>              <dbl>     <dbl>       <dbl> <dbl>
##  1 Owl … Aotus omni  Prim… <NA>                17         1.8      NA       7  
##  2 Grea… Blar… omni  Sori… lc                  14.9       2.3       0.133   9.1
##  3 Vesp… Calo… <NA>  Rode… <NA>                 7        NA        NA      17  
##  4 Guin… Cavis herbi Rode… domesticated         9.4       0.8       0.217  14.6
##  5 Chin… Chin… herbi Rode… domesticated        12.5       1.5       0.117  11.5
##  6 Star… Cond… omni  Sori… lc                  10.3       2.2      NA      13.7
##  7 Afri… Cric… omni  Rode… <NA>                 8.3       2        NA      15.7
##  8 Less… Cryp… omni  Sori… lc                   9.1       1.4       0.15   14.9
##  9 Big … Epte… inse… Chir… lc                  19.7       3.9       0.117   4.3
## 10 Euro… Erin… omni  Erin… lc                  10.1       3.5       0.283  13.9
## # … with 26 more rows, and 2 more variables: brainwt <dbl>, bodywt <dbl>
```
…
